{
  "dev": {
    "awscloudformation": {
      "AuthRoleName": "amplify-longdrive-dev-132541-authRole",
      "UnauthRoleArn": "arn:aws:iam::922853621385:role/amplify-longdrive-dev-132541-unauthRole",
      "AuthRoleArn": "arn:aws:iam::922853621385:role/amplify-longdrive-dev-132541-authRole",
      "Region": "us-east-1",
      "DeploymentBucketName": "amplify-longdrive-dev-132541-deployment",
      "UnauthRoleName": "amplify-longdrive-dev-132541-unauthRole",
      "StackName": "amplify-longdrive-dev-132541",
      "StackId": "arn:aws:cloudformation:us-east-1:922853621385:stack/amplify-longdrive-dev-132541/88eb92f0-0272-11ec-ae84-0e72af45bdc7",
      "AmplifyAppId": "d2j4ouqn9ekkd8"
    },
    "categories": {
      "auth": {
        "longdrive8f8b1b15": {}
      },
      "function": {
        "longdrive8f8b1b15PostConfirmation": {
          "deploymentBucketName": "amplify-longdrive-dev-132541-deployment",
          "s3Key": "amplify-builds/longdrive8f8b1b15PostConfirmation-75625955307a5975662b-build.zip"
        }
      }
    }
  }
}